{
    "default": [
        {
            "title": "квитанция об оплате госпошлины",
            "type": "gos_tickets",
            "required": true
        },
        {
            "title": "Расчет процентов по ст. 395 ГК РФ (его можно скать на ресурсе расчета)",
            "type": "percent_files",
            "required":  true
        },
        {
            "title": "Копия Договора займа",
            "type": "loan_files",
            "required":  true
        },
        {
            "title": "Копия документа, подтверждающего передачу денежных средств",
            "type": "check_files",
            "required":  true
        },
        {
            "title": "Документы, подтверждающие частичное погашение задолженности (если такое имело место)",
            "type": "debt_files",
            "required":  false
        },
        {
            "title": "Копия паспорта",
            "type": "passport_files",
            "required":  true
        }
    ],
    "test": [
        {
            "title": "1",
            "type": "1"
        },
        {
            "title": "2",
            "type": "2"
        },
        {
            "title": "3",
            "type": "3"
        },
        {
            "title": "4",
            "type": "4"
        },
        {
            "title": "5",
            "type": "5"
        },
        {
            "title": "6",
            "type": "6"
        }
    ]
}
